[
  {
    "bMulti": false,
    "eCategory": "CRICKET",
    "eFormat": "ODI",
    "sKey": "century_bonus",
    "sName": "Century Bonus",
    "nPoint": 8,
    "aPoint": []
  },
  {
    "bMulti": false,
    "eCategory": "BASEBALL",
    "eFormat": "BASEBALL",
    "sKey": "baseonballshitter",
    "sName": "A walk or base on walls occurs when a pitcher throws 4 'balls' or illegal deliveries to the same batter (Base on Balls Or Walk)",
    "nPoint": 4,
    "aPoint": []
  },


  {
    "bMulti": false,
    "eCategory": "BASEBALL",
    "eFormat": "BASEBALL",
    "sKey": "strikeout",
    "sName": "The pitcher throws three strikes to get a batter out (Strikeout)",
    "nPoint": 2,
    "aPoint": []
  },
  {
    "bMulti": false,
    "eCategory": "BASEBALL",
    "eFormat": "BASEBALL",
    "sKey": "hitallowed",
    "sName": "When the batter reaches 1st base (Hit Allowed)",
    "nPoint": -1,
    "aPoint": []
  },
  {
    "bMulti": false,
    "eCategory": "BASEBALL",
    "eFormat": "BASEBALL",
    "sKey": "double",
    "sName": "Batter reaches second base (Double)",
    "nPoint": 6,
    "aPoint": []
  },
  {
    "bMulti": false,
    "eCategory": "CRICKET",
    "eFormat": "T10",
    "sKey": "boundary_hit_bonus",
    "sName": "Boundary Hit",
    "nPoint": 1,
    "aPoint": []
  },
  {
    "bMulti": false,
    "eCategory": "CRICKET",
    "eFormat": "T10",
    "sKey": "maiden_bonus",
    "sName": "Maiden Over",
    "nPoint": 20,
    "aPoint": []
  },
  {
    "bMulti": false,
    "eCategory": "FOOTBALL",
    "eFormat": "FOOTBALL",
    "sKey": "for_every_goal_scored_forward_bonus",
    "sName": "For every goal scored (Forward)",
    "nPoint": 20,
    "aPoint": []
  },
  {
    "bMulti": false,
    "eCategory": "BASKETBALL",
    "eFormat": "BASKETBALL",
    "sKey": "rebounds",
    "sName": "Rebounds",
    "nPoint": 1.2,
    "aPoint": []
  },
  {
    "bMulti": false,
    "eCategory": "BASEBALL",
    "eFormat": "BASEBALL",
    "sKey": "triple",
    "sName": "Batter reaches third base (Triple)",
    "nPoint": 10,
    "aPoint": []
  },

  {
    "bMulti": false,
    "eCategory": "CRICKET",
    "eFormat": "ODI",
    "sKey": "stump_bonus",
    "sName": "Stump",
    "nPoint": 20,
    "aPoint": []
  },
  {
    "bMulti": false,
    "eCategory": "BASEBALL",
    "eFormat": "BASEBALL",
    "sKey": "earnedrun",
    "sName": "Run conceded by the pitcher (Earned Run)",
    "nPoint": -3,
    "aPoint": []
  },
  {
    "bMulti": false,
    "eCategory": "FOOTBALL",
    "eFormat": "FOOTBALL",
    "sKey": "for_every_assist_bonus",
    "sName": "For every assist",
    "nPoint": 15,
    "aPoint": []
  },
  {
    "bMulti": false,
    "eCategory": "FOOTBALL",
    "eFormat": "FOOTBALL",
    "sKey": "for_every_penalty_saved_gk_bonus",
    "sName": "For every penalty saved (GK)",
    "nPoint": 20,
    "aPoint": []
  },
  {
    "bMulti": false,
    "eCategory": "FOOTBALL",
    "eFormat": "FOOTBALL",
    "sKey": "for_every_2_goal_conceded_defender_bonus",
    "sName": "For every 2 goals conceded (Defender)",
    "nPoint": -5,
    "aPoint": []
  },
  {
    "bMulti": false,
    "eCategory": "BASKETBALL",
    "eFormat": "BASKETBALL",
    "sKey": "point_scored",
    "sName": "Point Scored",
    "nPoint": 1,
    "aPoint": []
  },
  {
    "bMulti": false,
    "eCategory": "CRICKET",
    "eFormat": "ODI",
    "sKey": "run_score_bonus",
    "sName": "Run Score",
    "nPoint": 1,
    "aPoint": []
  },
  {
    "bMulti": false,
    "eCategory": "CRICKET",
    "eFormat": "T10",
    "sKey": "half_century_bonus",
    "sName": "Half Century Bonus",
    "nPoint": 16,
    "aPoint": []
  },

  {
    "bMulti": false,
    "eCategory": "FOOTBALL",
    "eFormat": "FOOTBALL",
    "sKey": "for_every_1_successful_tackles_made_bonus",
    "sName": "For every 1 successful tackles made",
    "nPoint": 5,
    "aPoint": []
  },
  {
    "bMulti": false,
    "eCategory": "FOOTBALL",
    "eFormat": "FOOTBALL",
    "sKey": "for_every_2_goal_conceded_gk_bonus",
    "sName": "For every 2 goals conceded (GK)",
    "nPoint": -5,
    "aPoint": []
  },
  {
    "bMulti": false,
    "eCategory": "BASKETBALL",
    "eFormat": "BASKETBALL",
    "sKey": "turnover",
    "sName": "Turnover",
    "nPoint": -1,
    "aPoint": []
  },
  {
    "bMulti": false,
    "eCategory": "CRICKET",
    "eFormat": "ODI",
    "sKey": "half_century_bonus",
    "sName": "Half Century Bonus",
    "nPoint": 4,
    "aPoint": []
  },
  {
    "bMulti": false,
    "eCategory": "CRICKET",
    "eFormat": "ODI",
    "sKey": "runout_bonus",
    "sName": "Runout",
    "nPoint": 20,
    "aPoint": []
  },
  {
    "bMulti": false,
    "eCategory": "CRICKET",
    "eFormat": "T10",
    "sKey": "runout_bonus",
    "sName": "Runout",
    "nPoint": 20,
    "aPoint": []
  },
  {
    "bMulti": false,
    "eCategory": "FOOTBALL",
    "eFormat": "FOOTBALL",
    "sKey": "clean_sheet_gk_bonus",
    "sName": "Clean sheet (GK)",
    "nPoint": 20,
    "aPoint": []
  },
  {
    "bMulti": false,
    "eCategory": "CRICKET",
    "eFormat": "ODI",
    "sKey": "catches_bonus",
    "sName": "Catches",
    "nPoint": 10,
    "aPoint": []
  },
  {
    "bMulti": false,
    "eCategory": "BASEBALL",
    "eFormat": "BASEBALL",
    "sKey": "homerun",
    "sName": "Batter hits it out of the park or reaches back to home base (Home Run)",
    "nPoint": 12,
    "aPoint": []
  },
  {
    "bMulti": false,
    "eCategory": "BASEBALL",
    "eFormat": "BASEBALL",
    "sKey": "baseonballpicther",
    "sName": "Walk occurs when a pitcher throws 4 'balls' or illegal deliveries to the same batter (Base on Walls Or Walk)",
    "nPoint": -1,
    "aPoint": []
  },
  {
    "bMulti": true,
    "eCategory": "CRICKET",
    "eFormat": "T10",
    "sKey": "economy_bonus",
    "sName": "Economy Bonus",
    "aPoint": [
      {
        "nRangeFrom": 0,
        "nRangeTo": 5.99,
        "nMinValue": 1,
        "nBonus": 3
      },
      {
        "nRangeFrom": 6,
        "nRangeTo": 6.99,
        "nMinValue": 1,
        "nBonus": 2
      },
      {
        "nRangeFrom": 7,
        "nRangeTo": 8,
        "nMinValue": 1,
        "nBonus": 1
      },
      {
        "nRangeFrom": 11,
        "nRangeTo": 12,
        "nMinValue": 1,
        "nBonus": -1
      },
      {
        "nRangeFrom": 12.01,
        "nRangeTo": 13,
        "nMinValue": 1,
        "nBonus": -2
      },
      {
        "nRangeFrom": 13.01,
        "nRangeTo": 100,
        "nMinValue": 1,
        "nBonus": -3
      }
    ]
  },

  {
    "bMulti": false,
    "eCategory": "FOOTBALL",
    "eFormat": "FOOTBALL",
    "sKey": "clean_sheet_defender_bonus",
    "sName": "Clean sheet (Defender)",
    "nPoint": 20,
    "aPoint": []
  },
  {
    "bMulti": false,
    "eCategory": "FOOTBALL",
    "eFormat": "FOOTBALL",
    "sKey": "yellow_card_bonus",
    "sName": "Yellow card",
    "nPoint": -2,
    "aPoint": []
  },

  {
    "bMulti": false,
    "eCategory": "FOOTBALL",
    "eFormat": "FOOTBALL",
    "sKey": "for_every_1_shots_on_target_bonus",
    "sName": "For every 1 shots on target",
    "nPoint": 5,
    "aPoint": []
  },
  {
    "bMulti": false,
    "eCategory": "FOOTBALL",
    "eFormat": "FOOTBALL",
    "sKey": "for_every_3_shots_saved_gk_bonus",
    "sName": "For every 3 shots saved (GK)",
    "nPoint": 10,
    "aPoint": []
  },
  {
    "bMulti": false,
    "eCategory": "FOOTBALL",
    "eFormat": "FOOTBALL",
    "sKey": "red_card_bonus",
    "sName": "Red card",
    "nPoint": -5,
    "aPoint": []
  },
  {
    "bMulti": false,
    "eCategory": "FOOTBALL",
    "eFormat": "FOOTBALL",
    "sKey": "for_every_own_goal_bonus",
    "sName": "For every own goal",
    "nPoint": -10,
    "aPoint": []
  },

  {
    "bMulti": false,
    "eCategory": "BASKETBALL",
    "eFormat": "BASKETBALL",
    "sKey": "steals",
    "sName": "Steal",
    "nPoint": 3,
    "aPoint": []
  },
  {
    "bMulti": false,
    "eCategory": "CRICKET",
    "eFormat": "ODI",
    "sKey": "six_hit_bonus",
    "sName": "Six Hit",
    "nPoint": 4,
    "aPoint": []
  },
  {
    "bMulti": false,
    "eCategory": "BASEBALL",
    "eFormat": "BASEBALL",
    "sKey": "inningpitched",
    "sName": "The pitcher gets 3 batter outs. The pitcher gets 1 point per out (Inning Pitched)",
    "nPoint": 3,
    "aPoint": []
  },
  {
    "bMulti": false,
    "eCategory": "CRICKET",
    "eFormat": "T10",
    "sKey": "playing_eleven_bonus",
    "sName": "Playing 11",
    "nPoint": 4,
    "aPoint": []
  },
  {
    "bMulti": false,
    "eCategory": "CRICKET",
    "eFormat": "T10",
    "sKey": "run_score_bonus",
    "sName": "Run Score",
    "nPoint": 1,
    "aPoint": []
  },

  {
    "bMulti": false,
    "eCategory": "CRICKET",
    "eFormat": "ODI",
    "sKey": "boundary_hit_bonus",
    "sName": "Boundary Hit",
    "nPoint": 2,
    "aPoint": []
  },
  {
    "bMulti": false,
    "eCategory": "BASEBALL",
    "eFormat": "BASEBALL",
    "sKey": "stolenbase",
    "sName": "Runner advances to next base while pitcher is pitching (Stolen Base)",
    "nPoint": 8,
    "aPoint": []
  },
  {
    "bMulti": false,
    "eCategory": "CRICKET",
    "eFormat": "T10",
    "sKey": "3_wicket_bonus",
    "sName": "3 Wicket Bonus",
    "nPoint": 16,
    "aPoint": []
  },
  {
    "bMulti": false,
    "eCategory": "CRICKET",
    "eFormat": "T10",
    "sKey": "30_run_bonus",
    "sName": "30 Run bonus",
    "nPoint": 8,
    "aPoint": []
  },
  {
    "bMulti": false,
    "eCategory": "FOOTBALL",
    "eFormat": "FOOTBALL",
    "sKey": "for_every_goal_scored_gk_bonus",
    "sName": "For every goal scored (GK)",
    "nPoint": 40,
    "aPoint": []
  },
  {
    "bMulti": false,
    "eCategory": "FOOTBALL",
    "eFormat": "FOOTBALL",
    "sKey": "clean_sheet_midfielder_bonus",
    "sName": "Clean sheet (Midfielder)",
    "nPoint": 10,
    "aPoint": []
  },
  {
    "bMulti": false,
    "eCategory": "FOOTBALL",
    "eFormat": "FOOTBALL",
    "sKey": "for_every_penalty_missed_bonus",
    "sName": "For every penalty missed",
    "nPoint": -2,
    "aPoint": []
  },
  {
    "bMulti": false,
    "eCategory": "CRICKET",
    "eFormat": "ODI",
    "sKey": "3_wicket_bonus",
    "sName": "3 Wicket Bonus",
    "nPoint": 4,
    "aPoint": []
  },
  {
    "bMulti": true,
    "eCategory": "CRICKET",
    "eFormat": "ODI",
    "sKey": "strike_rate_bonus",
    "sName": "Strike Rate",
    "aPoint": [
      {
        "nRangeFrom": 0,
        "nRangeTo": 74.99,
        "nMinValue": 20,
        "nBonus": -5
      },
      {
        "nRangeFrom": 75,
        "nRangeTo": 99.99,
        "nMinValue": 20,
        "nBonus": 0
      },
      {
        "nRangeFrom": 100,
        "nRangeTo": 124.99,
        "nMinValue": 20,
        "nBonus": 5
      },
      {
        "nRangeFrom": 125,
        "nRangeTo": 174.99,
        "nMinValue": 20,
        "nBonus": 10
      },
      {
        "nRangeFrom": 175,
        "nRangeTo": 800,
        "nMinValue": 20,
        "nBonus": 20
      }
    ]
  },
  {
    "bMulti": false,
    "eCategory": "BASEBALL",
    "eFormat": "BASEBALL",
    "sKey": "single",
    "sName": "Batter reaches first base (Single)",
    "nPoint": 4,
    "aPoint": []
  },
  {
    "bMulti": false,
    "eCategory": "BASEBALL",
    "eFormat": "BASEBALL",
    "sKey": "runsbattedin",
    "sName": "Batter on strike cause one or more runs to be scored (Runs Batted In)",
    "nPoint": 3,
    "aPoint": []
  },
  {
    "bMulti": false,
    "eCategory": "CRICKET",
    "eFormat": "T10",
    "sKey": "catches_bonus",
    "sName": "Catches",
    "nPoint": 10,
    "aPoint": []
  },
  {
    "bMulti": false,
    "eCategory": "FOOTBALL",
    "eFormat": "FOOTBALL",
    "sKey": "played_55_minutes_or_more_bonus",
    "sName": "Played 55 minutes or more",
    "nPoint": 2,
    "aPoint": []
  },
  {
    "bMulti": false,
    "eCategory": "FOOTBALL",
    "eFormat": "FOOTBALL",
    "sKey": "played_less_than_55_minutes_bonus",
    "sName": "Played less than 55 minutes",
    "nPoint": 1,
    "aPoint": []
  },
  {
    "bMulti": false,
    "eCategory": "CRICKET",
    "eFormat": "ODI",
    "sKey": "5_wicket_bonus",
    "sName": "5 Wicket Bonus",
    "nPoint": 8,
    "aPoint": []
  },
  {
    "bMulti": false,
    "eCategory": "CRICKET",
    "eFormat": "ODI",
    "sKey": "maiden_bonus",
    "sName": "Maiden Over",
    "nPoint": 5,
    "aPoint": []
  },
  {
    "bMulti": true,
    "eCategory": "CRICKET",
    "eFormat": "ODI",
    "sKey": "economy_bonus",
    "sName": "Economy Bonus",
    "aPoint": [
      {
        "nRangeFrom": 0,
        "nRangeTo": 2.99,
        "nMinValue": 4,
        "nBonus": 15
      },
      {
        "nRangeFrom": 3,
        "nRangeTo": 4.99,
        "nMinValue": 4,
        "nBonus": 10
      },
      {
        "nRangeFrom": 5,
        "nRangeTo": 7.99,
        "nMinValue": 4,
        "nBonus": 0
      },
      {
        "nRangeFrom": 8,
        "nRangeTo": 9.99,
        "nMinValue": 4,
        "nBonus": -10
      },
      {
        "nRangeFrom": 10,
        "nRangeTo": 200,
        "nMinValue": 4,
        "nBonus": -15
      }
    ]
  },
  {
    "bMulti": false,
    "eCategory": "BASEBALL",
    "eFormat": "BASEBALL",
    "sKey": "runscored",
    "sName": "Player crosses home base to score a run (Run Scored)",
    "nPoint": 3,
    "aPoint": []
  },
  {
    "bMulti": false,
    "eCategory": "CRICKET",
    "eFormat": "T10",
    "sKey": "six_hit_bonus",
    "sName": "Six Hit",
    "nPoint": 2,
    "aPoint": []
  },
  {
    "bMulti": false,
    "eCategory": "CRICKET",
    "eFormat": "T10",
    "sKey": "century_bonus",
    "sName": "Century Bonus",
    "nPoint": 32,
    "aPoint": []
  },
  {
    "bMulti": false,
    "eCategory": "CRICKET",
    "eFormat": "T10",
    "sKey": "wicket_bonus",
    "sName": "Wicket Taken",
    "nPoint": 20,
    "aPoint": []
  },

  {
    "bMulti": false,
    "eCategory": "FOOTBALL",
    "eFormat": "FOOTBALL",
    "sKey": "for_every_goal_scored_defender_bonus",
    "sName": "For every goal scored (Defender)",
    "nPoint": 30,
    "aPoint": []
  },
  {
    "bMulti": false,
    "eCategory": "FOOTBALL",
    "eFormat": "FOOTBALL",
    "sKey": "for_every_5_passes_completed_bonus",
    "sName": "For every 5 passes completed",
    "nPoint": 2,
    "aPoint": []
  },
  {
    "bMulti": false,
    "eCategory": "CRICKET",
    "eFormat": "T10",
    "sKey": "stump_bonus",
    "sName": "Stump",
    "nPoint": 20,
    "aPoint": []
  },
  {
    "bMulti": false,
    "eCategory": "FOOTBALL",
    "eFormat": "FOOTBALL",
    "sKey": "for_every_goal_scored_midfielder_bonus",
    "sName": "For every goal scored (Midfielder)",
    "nPoint": 25,
    "aPoint": []
  },
  {
    "bMulti": false,
    "eCategory": "CRICKET",
    "eFormat": "ODI",
    "sKey": "playing_eleven_bonus",
    "sName": "Playing 11",
    "nPoint": 4,
    "aPoint": []
  },
  {
    "bMulti": false,
    "eCategory": "CRICKET",
    "eFormat": "ODI",
    "sKey": "wicket_bonus",
    "sName": "Wicket Taken",
    "nPoint": 30,
    "aPoint": []
  },
  {
    "bMulti": true,
    "eCategory": "CRICKET",
    "eFormat": "T10",
    "sKey": "strike_rate_bonus",
    "sName": "Strike Rate",
    "aPoint": [
      {
        "nRangeFrom": 0,
        "nRangeTo": 79.99,
        "nMinValue": 1,
        "nBonus": -3
      },
      {
        "nRangeFrom": 80,
        "nRangeTo": 89.99,
        "nMinValue": 1,
        "nBonus": -2
      },
      {
        "nRangeFrom": 90,
        "nRangeTo": 99.99,
        "nMinValue": 1,
        "nBonus": -1
      }
    ]
  },
  {
    "bMulti": false,
    "eCategory": "FOOTBALL",
    "eFormat": "FOOTBALL",
    "sKey": "playing_eleven_bonus",
    "sName": "Playing 11",
    "nPoint": 4,
    "aPoint": []
  },
  {
    "bMulti": false,
    "eCategory": "BASKETBALL",
    "eFormat": "BASKETBALL",
    "sKey": "assist",
    "sName": "Assist",
    "nPoint": 1.5,
    "aPoint": []
  },
  {
    "bMulti": false,
    "eCategory": "BASKETBALL",
    "eFormat": "BASKETBALL",
    "sKey": "blocks",
    "sName": "Block",
    "nPoint": 3,
    "aPoint": []
  },
  {
    "bMulti": false,
    "eCategory": "CRICKET",
    "eFormat": "100BALL",
    "sKey": "playing_eleven_bonus",
    "sName": "Playing 11",
    "nPoint": 4
  },
  {
    "bMulti": false,
    "eCategory": "CRICKET",
    "eFormat": "100BALL",
    "sKey": "run_score_bonus",
    "sName": "Run Score",
    "nPoint": 1
  },
  {
    "bMulti": false,
    "eCategory": "CRICKET",
    "eFormat": "100BALL",
    "sKey": "boundary_hit_bonus",
    "sName": "Boundary Hit",
    "nPoint": 1
  },
  {
    "bMulti": false,
    "eCategory": "CRICKET",
    "eFormat": "100BALL",
    "sKey": "six_hit_bonus",
    "sName": "Six Hit",
    "nPoint": 2
  },
  {
    "bMulti": false,
    "eCategory": "CRICKET",
    "eFormat": "100BALL",
    "sKey": "half_century_bonus",
    "sName": "Half Century Bonus",
    "nPoint": 16
  },
  {
    "bMulti": false,
    "eCategory": "CRICKET",
    "eFormat": "100BALL",
    "sKey": "century_bonus",
    "sName": "Century Bonus",
    "nPoint": 40
  },
  {
    "bMulti": false,
    "eCategory": "CRICKET",
    "eFormat": "100BALL",
    "sKey": "30_run_bonus",
    "sName": "30 Run bonus",
    "nPoint": 8
  },
  {
    "bMulti": false,
    "eCategory": "CRICKET",
    "eFormat": "100BALL",
    "sKey": "wicket_bonus",
    "sName": "Wicket Taken",
    "nPoint": 20
  },
  {
    "bMulti": false,
    "eCategory": "CRICKET",
    "eFormat": "100BALL",
    "sKey": "2_wicket_bonus",
    "sName": "2 Wicket Bonus",
    "nPoint": 3
  },
  {
    "bMulti": false,
    "eCategory": "CRICKET",
    "eFormat": "100BALL",
    "sKey": "3_wicket_bonus",
    "sName": "3 Wicket Bonus",
    "nPoint": 5
  },
  {
    "bMulti": false,
    "eCategory": "CRICKET",
    "eFormat": "100BALL",
    "sKey": "4_wicket_bonus",
    "sName": "4 Wicket Bonus",
    "nPoint": 10
  },
  {
    "bMulti": false,
    "eCategory": "CRICKET",
    "eFormat": "100BALL",
    "sKey": "5_wicket_bonus",
    "sName": "5 Wicket Bonus",
    "nPoint": 20
  },
  {
    "bMulti": false,
    "eCategory": "CRICKET",
    "eFormat": "100BALL",
    "sKey": "catches_bonus",
    "sName": "Catches",
    "nPoint": 8
  },
  {
    "bMulti": false,
    "eCategory": "CRICKET",
    "eFormat": "100BALL",
    "sKey": "3_catches_bonus",
    "sName": "3 Catches Bonus",
    "nPoint": 15
  },
  {
    "bMulti": false,
    "eCategory": "CRICKET",
    "eFormat": "100BALL",
    "sKey": "runout_bonus",
    "sName": "Runout",
    "nPoint": 20
  },
  {
    "bMulti": false,
    "eCategory": "CRICKET",
    "eFormat": "100BALL",
    "sKey": "stump_bonus",
    "sName": "Stump",
    "nPoint": 12
  },
  {
    "eFormat": "TEST",
    "eCategory": "CRICKET",
    "bMulti": false,
    "sKey": "playing_eleven_bonus",
    "sName": "Playing 11",
    "nPoint": 4
  },
  {
    "eFormat": "TEST",
    "eCategory": "CRICKET",
    "bMulti": false,
    "sKey": "catches_bonus",
    "sName": "Catches",
    "nPoint": 10
  },
  {
    "eFormat": "TEST",
    "eCategory": "CRICKET",
    "bMulti": false,
    "sKey": "runout_bonus",
    "sName": "Runout",
    "nPoint": 20
  },
  {
    "eFormat": "TEST",
    "eCategory": "CRICKET",
    "bMulti": false,
    "sKey": "stump_bonus",
    "sName": "Stump",
    "nPoint": 20
  },
  {
    "eFormat": "TEST",
    "eCategory": "CRICKET",
    "bMulti": false,
    "sKey": "wicket_bonus",
    "sName": "Wicket Taken",
    "nPoint": 35
  },
  {
    "eFormat": "TEST",
    "eCategory": "CRICKET",
    "bMulti": false,
    "sKey": "5_wicket_bonus",
    "sName": "5 Wicket Bonus",
    "nPoint": 4
  },
  {
    "eFormat": "TEST",
    "eCategory": "CRICKET",
    "bMulti": false,
    "sKey": "century_bonus",
    "sName": "Century Bonus",
    "nPoint": 8
  },
  {
    "eFormat": "TEST",
    "eCategory": "CRICKET",
    "bMulti": false,
    "sKey": "run_score_bonus",
    "sName": "Run Score",
    "nPoint": 1
  },
  {
    "eFormat": "TEST",
    "eCategory": "CRICKET",
    "bMulti": false,
    "sKey": "half_century_bonus",
    "sName": "Half Century Bonus",
    "nPoint": 4
  },
  {
    "eFormat": "TEST",
    "eCategory": "CRICKET",
    "bMulti": false,
    "sKey": "six_hit_bonus",
    "sName": "Six Hit",
    "nPoint": 4
  },
  {
    "eFormat": "TEST",
    "eCategory": "CRICKET",
    "bMulti": false,
    "sKey": "boundary_hit_bonus",
    "sName": "Boundary Hit",
    "nPoint": 2
  },
  {
    "bMulti": false,
    "eCategory": "KABADDI",
    "eFormat": "KABADDI",
    "sKey": "being_part_of_the_starting_7",
    "sName": "Being part of the Starting 7",
    "nPoint": 4,
    "aPoint": []
  },
  {
    "bMulti": false,
    "eCategory": "KABADDI",
    "eFormat": "KABADDI",
    "sKey": "making_a_substitute_appearance",
    "sName": "Making a substitute appearance",
    "nPoint": 2,
    "aPoint": []
  },
  {
    "bMulti": false,
    "eCategory": "KABADDI",
    "eFormat": "KABADDI",
    "sKey": "each_successful_raid_touch_point",
    "sName": "Each successful raid touch point",
    "nPoint": 4,
    "aPoint": []
  },
  {
    "bMulti": false,
    "eCategory": "KABADDI",
    "eFormat": "KABADDI",
    "sKey": "raid_bonus",
    "sName": "Raid Bonus",
    "nPoint": 2,
    "aPoint": []
  },
  {
    "bMulti": false,
    "eCategory": "KABADDI",
    "eFormat": "KABADDI",
    "sKey": "each_successful_tackle",
    "sName": "Each successful tackle",
    "nPoint": 5,
    "aPoint": []
  },
  {
    "bMulti": false,
    "eCategory": "KABADDI",
    "eFormat": "KABADDI",
    "sKey": "each_unsuccessful_raid",
    "sName": "Each unsuccessful raid",
    "nPoint": -1,
    "aPoint": []
  },
  {
    "bMulti": false,
    "eCategory": "KABADDI",
    "eFormat": "KABADDI",
    "sKey": "super_tackle",
    "sName": "Super tackle",
    "nPoint": 4,
    "aPoint": []
  },
  {
    "bMulti": false,
    "eCategory": "KABADDI",
    "eFormat": "KABADDI",
    "sKey": "pushing_all_out",
    "sName": "Pushing all out (starting 7)",
    "nPoint": 3,
    "aPoint": []
  },
  {
    "bMulti": false,
    "eCategory": "KABADDI",
    "eFormat": "KABADDI",
    "sKey": "getting_all_out",
    "sName": "Getting all out (starting 7)",
    "nPoint": -2,
    "aPoint": []
  },
  {
    "bMulti": false,
    "eCategory": "KABADDI",
    "eFormat": "KABADDI",
    "sKey": "green_card",
    "sName": "Green Card",
    "nPoint": -2,
    "aPoint": []
  },
  {
    "bMulti": false,
    "eCategory": "KABADDI",
    "eFormat": "KABADDI",
    "sKey": "yellow_card",
    "sName": "Yellow Card",
    "nPoint": -4,
    "aPoint": []
  },
  {
    "bMulti": false,
    "eCategory": "KABADDI",
    "eFormat": "KABADDI",
    "sKey": "red_card",
    "sName": "Red Card",
    "nPoint": -6,
    "aPoint": []
  },
  { 
    "bMulti": false,
    "eCategory": "CRICKET",
    "eFormat": "T20",
    "sKey": "maiden_bonus",
    "sName": "Maiden Over",
    "nPoint": 10,
    "aPoint": []
  },
  {
    "bMulti": true,
    "eCategory": "CRICKET",
    "eFormat": "T20",
    "sKey": "economy_bonus",
    "sName": "Economy Bonus",
    "aPoint": [
      {
        "nRangeFrom": 0,
        "nRangeTo": 2.99,
        "nMinValue": 2,
        "nBonus": 20
      },
      {
        "nRangeFrom": 3,
        "nRangeTo": 4.99,
        "nMinValue": 2,
        "nBonus": 10
      },
      {
        "nRangeFrom": 5,
        "nRangeTo": 6.99,
        "nMinValue": 2,
        "nBonus": 5
      },
      {
        "nRangeFrom": 7,
        "nRangeTo": 8.99,
        "nMinValue": 2,
        "nBonus": 0
      },
      {
        "nRangeFrom": 9,
        "nRangeTo": 200,
        "nMinValue": 2,
        "nBonus": -10
      }
    ]
  },
  {
    "bMulti": false,
    "eCategory": "CRICKET",
    "eFormat": "T20",
    "sKey": "half_century_bonus",
    "sName": "Half Century Bonus",
    "nPoint": 8,
    "aPoint": []
  },
  {
    "bMulti": false,
    "eCategory": "CRICKET",
    "eFormat": "T20",
    "sKey": "playing_eleven_bonus",
    "sName": "Playing 11",
    "nPoint": 4,
    "aPoint": []
  },
  {
    "bMulti": false,
    "eCategory": "CRICKET",
    "eFormat": "T20",
    "sKey": "boundary_hit_bonus",
    "sName": "Boundary Hit",
    "nPoint": 1,
    "aPoint": []
  },
  {
    "bMulti": false,
    "eCategory": "CRICKET",
    "eFormat": "T20",
    "sKey": "wicket_bonus",
    "sName": "Wicket Taken",
    "nPoint": 15,
    "aPoint": []
  },
  {
    "bMulti": false,
    "eCategory": "CRICKET",
    "eFormat": "T20",
    "sKey": "5_wicket_bonus",
    "sName": "5 Wicket Bonus",
    "nPoint": 16,
    "aPoint": []
  },
  {
    "bMulti": false,
    "eCategory": "CRICKET",
    "eFormat": "T20",
    "sKey": "catches_bonus",
    "sName": "Catches",
    "nPoint": 10,
    "aPoint": []
  },
  {
    "bMulti": false,
    "eCategory": "CRICKET",
    "eFormat": "T20",
    "sKey": "30_run_bonus",
    "sName": "30 Run bonus",
    "nPoint": 4,
    "aPoint": []
  },
  {
    "bMulti": false,
    "eCategory": "CRICKET",
    "eFormat": "T20",
    "sKey": "3_wicket_bonus",
    "sName": "3 Wicket Bonus",
    "nPoint": 8,
    "aPoint": []
  },
  {
    "bMulti": true,
    "eCategory": "CRICKET",
    "eFormat": "T20",
    "sKey": "strike_rate_bonus",
    "sName": "Strike Rate",
    "aPoint": [
      {
        "nRangeFrom": 0,
        "nRangeTo": 74.99,
        "nMinValue": 10,
        "nBonus": -15
      },
      {
        "nRangeFrom": 75,
        "nRangeTo": 124.99,
        "nMinValue": 10,
        "nBonus": 0
      },
      {
        "nRangeFrom": 125,
        "nRangeTo": 149.99,
        "nMinValue": 10,
        "nBonus": 5
      },
      {
        "nRangeFrom": 150,
        "nRangeTo": 199.99,
        "nMinValue": 10,
        "nBonus": 10
      },
      {
        "nRangeFrom": 200,
        "nRangeTo": 800,
        "nMinValue": 10,
        "nBonus": 15
      }
    ]
  },
  {
    "bMulti": false,
    "eCategory": "CRICKET",
    "eFormat": "T20",
    "sKey": "century_bonus",
    "sName": "Century Bonus",
    "nPoint": 16,
    "aPoint": []
  },
  {
    "bMulti": false,
    "eCategory": "CRICKET",
    "eFormat": "T20",
    "sKey": "stump_bonus",
    "sName": "Stump",
    "nPoint": 20,
    "aPoint": []
  },
  {
    "bMulti": false,
    "eCategory": "CRICKET",
    "eFormat": "T20",
    "sKey": "run_score_bonus",
    "sName": "Run Score",
    "nPoint": 1,
    "aPoint": []
  },
  {
    "bMulti": false,
    "eCategory": "CRICKET",
    "eFormat": "T20",
    "sKey": "runout_bonus",
    "sName": "Runout",
    "nPoint": 20,
    "aPoint": []
  },
  {
    "bMulti": false,
    "eCategory": "CRICKET",
    "eFormat": "T20",
    "sKey": "six_hit_bonus",
    "sName": "Six Hit",
    "nPoint": 2,
    "aPoint": []
  }
]